Assignment 1 ETC1010 - 5510
…
length(unique(crime_long_new$Suburb))     # 1pt

## [1] 16

n_distinct(crime_long_new$Suburb) # 1pt 

## [1] 16

Question 10: How many incidents do we have per Offence_category in total for 2019?

crime_long_new %>% 
  dplyr::filter(Year == "2019") %>%    # 1pt
  count(Offence_category , wt = incidents)              # 1pt

## # A tibble: 21 x 2
##    Offence_category                          n
##    <chr>                                 <dbl>
##  1 Abduction and kidnapping                  1
##  2 Against justice procedures             1950
##  3 Arson                                    60
##  4 Assault                                1396
##  5 Betting and gaming offences               1
##  6 Blackmail and extortion                   2
##  7 Disorderly conduct                      429
##  8 Drug offences                          1416
##  9 Homicide                                  2
## 10 Intimidation, stalking and harassment   566
## #  with 11 more rows

Question 11: Which is the Offence_category with highest number of incidents in 2019?

crime_long_new %>% 
  dplyr::filter(Year == "2019") %>%    #  1pt
  count(Offence_category, wt = incidents, sort = TRUE) # 1pt

## # A tibble: 21 x 2
##    Offence_category                          n
##    <chr>                                 <dbl>
##  1 Theft                                  4061
##  2 Against justice procedures             1950
##  3 Drug offences                          1416
##  4 Assault                                1396
##  5 Malicious damage to property           1093
##  6 Intimidation, stalking and harassment   566
##  7 Transport regulatory offences           517
##  8 Disorderly conduct                      429
##  9 Liquor offences                         356
## 10 Sexual offences                         273
## #  with 11 more rows
…
